{
  "描述": "通过Nginx提供静态资源访问服务.",
  "参数": {
    "服务域名": {
      "类型": "string",
      "默认值": "$(hostname -I | awk '{print $1}')",
      "变量名": "domain_name",
      "说明": ""
    },
    "对应端口": {
      "类型": "整数",
      "默认值": 80,
      "变量名": "port",
      "说明": ""
    },
    "项目根路径": {
      "类型": ["绝对路径", "string"],
      "默认值": null,
      "变量名": "project_root_path",
      "说明": ""
    },
    "首页路径": {
      "类型": "string",
      "默认值": null,
      "变量名": "index_page",
      "说明": ""
    }
  }
}