{
  "描述": "安装Clash.",
  "参数继承": "网络/VPN/Clash",
  "参数": {
    "安装包链接": {
      "类型": "链接",
      "默认值": "https://github.com/Dreamacro/clash/releases/download/v$clash_version/clash-linux-amd64-v$clash_version.gz",
      "变量名": "clash_package_url",
      "说明": ""
    },
    "全球IP库链接": {
      "类型": "链接",
      "默认值": "https://github.com/Dreamacro/maxmind-geoip/releases/download/20230112/Country.mmdb",
      "变量名": "clash_country_mmdb_url",
      "说明": "Country.mmdb为全球IP库,可以实现各个国家的IP信息解析和地理定位,该数据库每月更新."
    },
    "UI管理软件包链接": {
      "类型": "链接",
      "默认值": "https://github.com/haishanh/yacd/archive/gh-pages.zip",
      "变量名": "clash_ui_control_package_url",
      "说明": "目前仅可用yacd"
    }
  }
}